{
  "properties": {
    "event_time": {
      "type": "date",
      "format": "yyyy-MM-dd'T'HH:mm:ss.SSSZ||yyyy-MM-dd HH:mm:ss||yyyy-MM-dd||epoch_millis"
    },
    "store": {
      "type": "long"
    },
    "direction": {
      "type": "keyword"
    },
    "visit_count": {
      "type": "long"
    },
    "entry_id": {
      "type": "long"
    }
  }
}